{
  "totalCount": 270,
  "count": 50,
  "offset": 0,
  "limit": 50,
  "links": {
    "next": {
      "href": "http://localhost:3000/api/sdk/platform/v1/permissions?userId=akarobjones&offset=50&limit=50"
    },
    "last": {
      "href": "http://localhost:3000/api/sdk/platform/v1/permissions?userId=akarobjones&offset=250&limit=50"
    },
    "self": {
      "href": "http://localhost:3000/api/sdk/platform/v1/permissions?userId=akarobjones"
    }
  },
  "permissions": [
    {
      "links": {
        "organizations": {
          "href": "http://localhost:3000/api/sdk/platform/v1/organizations?permissionId=5001&userId=akarobjones"
        },
        "self": {
          "href": "http://localhost:3000/api/sdk/platform/v1/permissions/5001"
        }
      },
      "id": "5001",
      "description": "835 Setup"
    },
    {
      "links": {
        "organizations": {
          "href": "http://localhost:3000/api/sdk/platform/v1/organizations?permissionId=4014&userId=akarobjones"
        },
        "self": {
          "href": "http://localhost:3000/api/sdk/platform/v1/permissions/4014"
        }
      },
      "id": "4014",
      "description": "Access Audit Report"
    },
    {
      "links": {
        "organizations": {
          "href": "http://localhost:3000/api/sdk/platform/v1/organizations?permissionId=7000&userId=akarobjones"
        },
        "self": {
          "href": "http://localhost:3000/api/sdk/platform/v1/permissions/7000"
        }
      },
      "id": "7000",
      "description": "Add User"
    },
    {
      "links": {
        "organizations": {
          "href": "http://localhost:3000/api/sdk/platform/v1/organizations?permissionId=7153&userId=akarobjones"
        },
        "self": {
          "href": "http://localhost:3000/api/sdk/platform/v1/permissions/7153"
        }
      },
      "id": "7153",
      "description": "Administrative Reports"
    },
    {
      "links": {
        "organizations": {
          "href": "http://localhost:3000/api/sdk/platform/v1/organizations?permissionId=7100&userId=akarobjones"
        },
        "self": {
          "href": "http://localhost:3000/api/sdk/platform/v1/permissions/7100"
        }
      },
      "id": "7100",
      "description": "Administrator Dashboard"
    },
    {
      "links": {
        "organizations": {
          "href": "http://localhost:3000/api/sdk/platform/v1/organizations?permissionId=7032&userId=akarobjones"
        },
        "self": {
          "href": "http://localhost:3000/api/sdk/platform/v1/permissions/7032"
        }
      },
      "id": "7032",
      "description": "Administrator Reports"
    },
    {
      "links": {
        "organizations": {
          "href": "http:localhost:3000/api/sdk/platform/v1/organizations?permissionId=472&userId=akarobjones"
        },
        "self": {
          "href": "http:localhost:3000/api/sdk/platform/v1/permissions/472"
        }
      },
      "id": "472",
      "description": "Authorization and Referral Inquiry"
    },
    {
      "links": {
        "organizations": {
          "href": "http:localhost:3000/api/sdk/platform/v1/organizations?permissionId=7183&userId=akarobjones"
        },
        "self": {
          "href": "http:localhost:3000/api/sdk/platform/v1/permissions/7183"
        }
      },
      "id": "7183",
      "description": "Authorization Management"
    },
    {
      "links": {
        "organizations": {
          "href": "http:localhost:3000/api/sdk/platform/v1/organizations?permissionId=1250&userId=akarobjones"
        },
        "self": {
          "href": "http:localhost:3000/api/sdk/platform/v1/permissions/1250"
        }
      },
      "id": "1250",
      "description": "Authorization Request"
    },
    {
      "links": {
        "organizations": {
          "href": "http:localhost:3000/api/sdk/platform/v1/organizations?permissionId=7095&userId=akarobjones"
        },
        "self": {
          "href": "http:localhost:3000/api/sdk/platform/v1/permissions/7095"
        }
      },
      "id": "7095",
      "description": "Auto-Authorization"
    },
    {
      "links": {
        "organizations": {
          "href": "http:localhost:3000/api/sdk/platform/v1/organizations?permissionId=7050&userId=akarobjones"
        },
        "self": {
          "href": "http:localhost:3000/api/sdk/platform/v1/permissions/7050"
        }
      },
      "id": "7050",
      "description": "Care Reminders"
    },
    {
      "links": {
        "organizations": {
          "href": "http:localhost:3000/api/sdk/platform/v1/organizations?permissionId=484&userId=akarobjones"
        },
        "self": {
          "href": "http:localhost:3000/api/sdk/platform/v1/permissions/484"
        }
      },
      "id": "484",
      "description": "Claim Status Inquiry"
    },
    {
      "links": {
        "organizations": {
          "href": "http:localhost:3000/api/sdk/platform/v1/organizations?permissionId=7234&userId=akarobjones"
        },
        "self": {
          "href": "http:localhost:3000/api/sdk/platform/v1/permissions/7234"
        }
      },
      "id": "7234",
      "description": "Eligibility and Benefits Inquiry"
    },
    {
      "links": {
        "organizations": {
          "href": "http:localhost:3000/api/sdk/platform/v1/organizations?permissionId=7035&userId=akarobjones"
        },
        "self": {
          "href": "http:localhost:3000/api/sdk/platform/v1/permissions/7035"
        }
      },
      "id": "7035",
      "description": "ERA Registration"
    },
    {
      "links": {
        "organizations": {
          "href": "http:localhost:3000/api/sdk/platform/v1/organizations?permissionId=7209&userId=akarobjones"
        },
        "self": {
          "href": "http:localhost:3000/api/sdk/platform/v1/permissions/7209"
        }
      },
      "id": "7209",
      "description": "Fee Schedule"
    }
  ]
}
